…
```r
# We can also see the actual effect on lms_overall of the selected variables
stepwise$coefficients %>% as_tibble(rownames = "effect")
```

```
## # A tibble: 26 × 2
##    effect                 value
##    <chr>                  <dbl>
##  1 (Intercept)           -3.02 
##  2 cata_taste_berry      38.5  
##  3 cata_taste_fruity     17.3  
##  4 cata_taste_fermented -28.0  
##  5 sample2              -10.7  
##  6 sample3               -1.70 
##  7 sample4               -7.15 
##  8 sample5                0.634
##  9 sample6              -24.3  
## 10 cata_taste_floral     23.6  
## # … with 16 more rows
## # ℹ Use `print(n = ...)` to see more rows
```
…
```r
coefficients(berry_mlm_cat) %>% as_tibble(rownames = "effect")
```

```
## # A tibble: 36 × 2
##    effect           value
##    <chr>            <dbl>
##  1 (Intercept)     2.86  
##  2 sample2         3.02  
##  3 sample3         1.16  
##  4 sample4        -3.95  
##  5 sample5         2.00  
##  6 sample6        -2.12  
##  7 lms_appearance  0.209 
##  8 lms_taste       0.724 
##  9 lms_texture     0.0668
## 10 lms_aroma       0.0975
## # … with 26 more rows
## # ℹ Use `print(n = ...)` to see more rows
```
…
