7 Advancing our wrangling | FST 5984: SS Data Analytics for Food and Ag Science
…
In fact, there are a couple of requirements for row binding that I’ll list here just to save time:

You must have the same number of columns in all tables

The columns must all have the same data type (character, numeric, etc)

The columns must have the same names

tidy_cider_liking %>%
  transmute(Sample_Name = cider_name, Panelist_Name, cata_attribute = "liking", checked = liking) %>%
  rbind(tidy_cider_cata, .)

## # A tibble: 9,072 × 4
##    Sample_Name Panelist_Name   cata_attribute  checked
##    <chr>       <chr>           <chr>             <dbl>
##  1 Bold rock   Paulette Cairns FermentedApples       0
##  2 Bold rock   Paulette Cairns OverripeApples        0
##  3 Bold rock   Paulette Cairns FreshApples           1
##  4 Bold rock   Paulette Cairns Alcohol               0
##  5 Bold rock   Paulette Cairns WineLike              0
##  6 Bold rock   Paulette Cairns Floral                0
##  7 Bold rock   Paulette Cairns Tart                  0
##  8 Bold rock   Paulette Cairns Candied               0
##  9 Bold rock   Paulette Cairns Fruity                1
## 10 Bold rock   Paulette Cairns Berries               0
## # … with 9,062 more rows
## # ℹ Use `print(n = ...)` to see more rows

How can we make sure this worked?

Of these two, rbind() is the less “dangerous” binding approach, because we usually store either full cases or observations in rows. Screwing up a row bind will generally not have as dire consequences for your analysis. But how could this be dangerous? There are so many requirements.

# What is wrong with this scene?  How would you know that something went wrong?
tidy_cider_liking %>%
  transmute(Sample_Name = Panelist_Name, Panelist_Name, cata_attribute = liking, checked = liking) %>%
  rbind(tidy_cider_cata, .)

## # A tibble: 9,072 × 4
##    Sample_Name Panelist_Name   cata_attribute  checked
##    <chr>       <chr>           <chr>             <dbl>
##  1 Bold rock   Paulette Cairns FermentedApples       0
##  2 Bold rock   Paulette Cairns OverripeApples        0
##  3 Bold rock   Paulette Cairns FreshApples           1
##  4 Bold rock   Paulette Cairns Alcohol               0
##  5 Bold rock   Paulette Cairns WineLike              0
##  6 Bold rock   Paulette Cairns Floral                0
##  7 Bold rock   Paulette Cairns Tart                  0
##  8 Bold rock   Paulette Cairns Candied               0
##  9 Bold rock   Paulette Cairns Fruity                1
## 10 Bold rock   Paulette Cairns Berries               0
## # … with 9,062 more rows
## # ℹ Use `print(n = ...)` to see more rows
…
Wouldn’t it be nice if there were a way to avoid this kind of problem? What a loaded question!

In fact, the concept of a “join”, which comes from relational data can do exactly this. I strongly recommend working through the examples from R4DS, and I find the Stat 545 “cheatsheet” on joins to be a really helpful quick reference. I will be going over these tools in relatively light detail (since we’re already late in the class here, and I will be asking you to use these in your own work).

The key (ha, wait for it) concept for understanding joins is a “key” identifier for each table. A key is a column or a set of columns that uniquely identifies each row of the table. That is, the values of the column(s) only occur once in the table.

In our example, if we look at tidy_cider_liking, we see that the key is the combination c(Panelist_Name, cider_name). We can use count() to confirm that this is true:

tidy_cider_liking %>%
  group_by(Panelist_Name, cider_name) %>%
  # Using sort = TRUE guarantees that the largest n will be at the top--if this is >1 we haven't identified the key
  count(sort = TRUE)

## # A tibble: 336 × 3
## # Groups:   Panelist_Name, cider_name [336]
##    Panelist_Name cider_name           n
##    <chr>         <chr>            <int>
##  1 Aili Wang     Big Fish             1
##  2 Aili Wang     Blue Bee             1
##  3 Aili Wang     Bold rock            1
##  4 Aili Wang     Buskeys              1
##  5 Aili Wang     Cobbler Mountain     1
##  6 Aili Wang     Potters              1
##  7 Amy Moore     Big Fish             1
##  8 Amy Moore     Blue Bee             1
##  9 Amy Moore     Bold rock            1
## 10 Amy Moore     Buskeys              1
## # … with 326 more rows
## # ℹ Use `print(n = ...)` to see more rows
…
# by using the pipe, tidy_cider_cata becomes X, and tidy_cider_liking becomes Y
joined_cider_cata <- tidy_cider_cata %>%
# Notice here we specify the keys, and if they are named differently we write it as <"x_key"> = <"y_key">
    left_join(tidy_cider_liking, by = c("Panelist_Name", "Sample_Name" = "cider_name"))

Notice that I used a named vector to specify the keys to join on. This might look weird, but the reason it is written as above is because both tables have subjects in the Panelist_Name column, but the names of the cider are in tidy_cider_cata$Sample_Name and tidy_cider_liking$cider_name. We are telling left_join() a vector of characters that name the columns that are keys, and in the case when they are not the same we are explicitly specifying this.

If I hadn’t done this, we would see some weird results:

# What is this using as the joining key?  What will the result be?
tidy_cider_cata %>%
  left_join(tidy_cider_liking)

## # A tibble: 52,416 × 6
##    Sample_Name Panelist_Name   cata_attribute  checked cider_name       liking
##    <chr>       <chr>           <chr>             <dbl> <chr>             <dbl>
##  1 Bold rock   Paulette Cairns FermentedApples       0 Bold rock             8
##  2 Bold rock   Paulette Cairns FermentedApples       0 Buskeys               4
##  3 Bold rock   Paulette Cairns FermentedApples       0 Blue Bee              1
##  4 Bold rock   Paulette Cairns FermentedApples       0 Potters               5
##  5 Bold rock   Paulette Cairns FermentedApples       0 Cobbler Mountain      5
##  6 Bold rock   Paulette Cairns FermentedApples       0 Big Fish              3
##  7 Bold rock   Paulette Cairns OverripeApples        0 Bold rock             8
##  8 Bold rock   Paulette Cairns OverripeApples        0 Buskeys               4
##  9 Bold rock   Paulette Cairns OverripeApples        0 Blue Bee              1
## 10 Bold rock   Paulette Cairns OverripeApples        0 Potters               5
## # … with 52,406 more rows
## # ℹ Use `print(n = ...)` to see more rows
…
What if we wanted to reverse the join, and use tidy_cider_liking as the left-side (X)? Because it is the “one” in the one-to-many relationship, we’d either have to decide on a specific CATA attribute we want to join, or rethink our resulting structure.

tidy_cider_liking %>%
  left_join(cider_cata, by = c("Panelist_Name", "cider_name" = "Sample_Name")) %>%
  select(1:8)

## # A tibble: 336 × 8
##    Panelist_Name          cider…¹ liking Ferme…² Overr…³ Fresh…⁴ Alcohol WineL…⁵
##    <chr>                  <chr>    <dbl>   <dbl>   <dbl>   <dbl>   <dbl>   <dbl>
##  1 Paulette Cairns        Bold r…      8       0       0       1       0       0
##  2 Paulette Cairns        Buskeys      4       1       0       0       1       0
##  3 Paulette Cairns        Blue B…      1       0       0       0       0       0
##  4 Paulette Cairns        Potters      5       1       0       0       0       0
##  5 Paulette Cairns        Cobble…      5       0       1       1       0       0
##  6 Paulette Cairns        Big Fi…      3       0       0       0       1       0
##  7 Renata Vieira Carneiro Bold r…      8       0       0       0       0       0
##  8 Renata Vieira Carneiro Buskeys      8       1       0       0       0       0
##  9 Renata Vieira Carneiro Blue B…      4       1       0       0       1       0
## 10 Renata Vieira Carneiro Potters      4       0       0       0       0       0
## # … with 326 more rows, and abbreviated variable names ¹​cider_name,
## #   ²​FermentedApples, ³​OverripeApples, ⁴​FreshApples, ⁵​WineLike
## # ℹ Use `print(n = ...)` to see more rows
…
Schematic of filtering with anti-joins from Wickham and Grolemund (2017)

Let’s imagine that we had a list of panelists who had been removed from our lab for rowdy behavior. We know their results are bad because they were busy partying. Let’s create a fake list of these panelists, and then use anti_join() to take them out of our datasets.

banned_panelists <- cider_liking %>%
  slice_sample(n = 7)

tidy_cider_liking %>%
  anti_join(banned_panelists, by = "Panelist_Name")

## # A tibble: 294 × 3
##    Panelist_Name          cider_name       liking
##    <chr>                  <chr>             <dbl>
##  1 Paulette Cairns        Bold rock             8
##  2 Paulette Cairns        Buskeys               4
##  3 Paulette Cairns        Blue Bee              1
##  4 Paulette Cairns        Potters               5
##  5 Paulette Cairns        Cobbler Mountain      5
##  6 Paulette Cairns        Big Fish              3
##  7 Renata Vieira Carneiro Bold rock             8
##  8 Renata Vieira Carneiro Buskeys               8
##  9 Renata Vieira Carneiro Blue Bee              4
## 10 Renata Vieira Carneiro Potters               4
## # … with 284 more rows
## # ℹ Use `print(n = ...)` to see more rows

tidy_cider_cata %>%
  anti_join(banned_panelists, by = "Panelist_Name")

## # A tibble: 7,644 × 4
##    Sample_Name Panelist_Name   cata_attribute  checked
##    <chr>       <chr>           <chr>             <dbl>
##  1 Bold rock   Paulette Cairns FermentedApples       0
##  2 Bold rock   Paulette Cairns OverripeApples        0
##  3 Bold rock   Paulette Cairns FreshApples           1
##  4 Bold rock   Paulette Cairns Alcohol               0
##  5 Bold rock   Paulette Cairns WineLike              0
##  6 Bold rock   Paulette Cairns Floral                0
##  7 Bold rock   Paulette Cairns Tart                  0
##  8 Bold rock   Paulette Cairns Candied               0
##  9 Bold rock   Paulette Cairns Fruity                1
## 10 Bold rock   Paulette Cairns Berries               0
## # … with 7,634 more rows
## # ℹ Use `print(n = ...)` to see more rows
…
