8 Inference from data | FST 5984: SS Data Analytics for Food and Ag Science
…
It does certainly look like having no ethanol exposure leads to almost 3 orders of magnitude more CFUs (because we’re in log units) than any timed exposure to ethanol vapor. We can use basic logic to frame a counterfactual–“if ethanol exposure has no effect, would we see the same difference in log CFUs?” And our ability to manipulate data with code allows us to do exactly this!

Specifically, we are going to manipulate our data set so as to “redo” our experiment thousands of times. In each case, we are going to take our 72 observations–the measured log CFUs–and randomly reassign them to the 72 experimental conditions–our ethanol-vapor time exposures–that could have generated them. This will give us 18 new observations for each time treatment, for which we will take a new point-estimate mean. We will then repeat this many times (usually thousands) to get a distribution of permuted means. Finally, we will compare our actual observations of mean log CFUs to the permuted means to determine if our observations show a particularly extreme value.

Let’s see how this works in practice, and then we will return to outline the general steps of a Permutation Test from Bruce and Bruce (2017).

# first, just to show how this works, let's do it once:
permutation_example <- tomato_salmonella %>%
  select(`Time (sec)`, `Log CFU/mL`) %>%
  bind_cols(sample(tomato_salmonella$`Time (sec)`, replace = FALSE)) %>% # unlike bootstrapping we use replace = FALSE to just permute our sample
  rename(actual_time = 1, logCFU = 2, permuted_time = 3)
permutation_example

## # A tibble: 72 × 3
##    actual_time logCFU permuted_time
##    <chr>        <dbl> <chr>        
##  1 0             6.51 0            
##  2 0             6.67 10           
##  3 0             6.68 10           
##  4 0             6.83 10           
##  5 0             6.68 0            
##  6 0             6.70 0            
##  7 0             6.75 0            
##  8 0             6.78 15           
##  9 0             6.36 15           
## 10 0             6.39 0            
## # … with 62 more rows
## # ℹ Use `print(n = ...)` to see more rows
…
