4 Wrangling your data | FST 5984: SS Data Analytics for Food and Ag Science
…
4.2.1 Naming: long (“tidy”) vs wide data

The name of the “tidyverse” comes from the core concept of “tidy” data. According to Wickham and Grolemund (2017), tidy data has the following properties:

Each variable must have its own column.

Each observation must have its own row.

Each value must have its own cell.

The result of this is the style of data we see in the polyphenols dataset, which we will use the tibble() function to make clearer:

tibble(polyphenols) 

## # A tibble: 81 × 4
##    Catechin PC.B2 Chlorogenic.acid equivalents.in.gallic.acid.mg.L
##       <dbl> <int>            <int>                           <dbl>
##  1      0.2     1                5                            2.79
##  2      0.2     1                5                            2.73
##  3      0.2     1                5                            2.74
##  4      0.2     1              200                           57.7 
##  5      0.2     1              200                           58.2 
##  6      0.2     1              200                           69.2 
##  7      0.2     1              500                          150.  
##  8      0.2     1              500                          162.  
##  9      0.2     1              500                          161.  
## 10      0.2    30                5                           15.2 
## # … with 71 more rows
## # ℹ Use `print(n = ...)` to see more rows

“Tidy” data is a synonym for “long” or “tall” data. This is in contrast to the “wide” data of the soups dataset:

tibble(soups)

## # A tibble: 24 × 5
##    subject minestrone1 minestrone2 hotandsour1 hotandsour2
##      <int>       <int>       <int>       <int>       <int>
##  1       1           0          50         -50          10
##  2       2          70          80         -20          20
##  3       3          80          97          10          37
##  4       4          20          60         -80          65
##  5       5          65          96          37          99
##  6       6          30          80         -50          20
##  7       7          75          90          40          80
##  8       8          70          80          50         -10
##  9       9          40          90         -60          20
## 10      10          15          65          25          20
## # … with 14 more rows
## # ℹ Use `print(n = ...)` to see more rows
…
ctrl + shift + M = %>%

4.2.3 The tibble()

OK, with those bits of syntax out of the way, let’s talk about what tidyverse can get us. We’ll start with something simple, but nice. The augmented version of data.frame that is provided by tidyverse (via the tibble package) is called a “tibble”.

soup_tbl <- tibble(soups)
class(soup_tbl)

## [1] "tbl_df"     "tbl"        "data.frame"

soup_tbl

## # A tibble: 24 × 5
##    subject minestrone1 minestrone2 hotandsour1 hotandsour2
##      <int>       <int>       <int>       <int>       <int>
##  1       1           0          50         -50          10
##  2       2          70          80         -20          20
##  3       3          80          97          10          37
##  4       4          20          60         -80          65
##  5       5          65          96          37          99
##  6       6          30          80         -50          20
##  7       7          75          90          40          80
##  8       8          70          80          50         -10
##  9       9          40          90         -60          20
## 10      10          15          65          25          20
## # … with 14 more rows
## # ℹ Use `print(n = ...)` to see more rows
…
4.2.4 Pick columns: select()

Here’s where tidyverse starts getting kind of spicy! R’s system for indexing data frames is clear and sensible for those who are used to programming languages, but it is not necessarily easy to read.

A common situation in R is wanting to select some rows and some columns of our data–this is called “subsetting” our data. We might want to do it manually (when we are doing exploration) or write a function that will do it automatically (maybe as part of a conditional statement or a loop). We give an example of wanting to do this in our pseudocode example for pipes, above. But this is less easy than it might be for the beginner in R.

In our pseudocode example, we wanted to pick all columns in soup that were about “minestrone”. In base R, we can get at these in a number of ways, but the most “foolproof” way is the following:

soup_tbl[, grep(pattern = "minestrone", x = names(soups), fixed = TRUE, value = FALSE)] # I picked the tbl version for printing

## # A tibble: 24 × 2
##    minestrone1 minestrone2
##          <int>       <int>
##  1           0          50
##  2          70          80
##  3          80          97
##  4          20          60
##  5          65          96
##  6          30          80
##  7          75          90
##  8          70          80
##  9          40          90
## 10          15          65
## # … with 14 more rows
## # ℹ Use `print(n = ...)` to see more rows
…
4.2.4.1 Exercise: Indexing the old-fashioned way

For the exercises above, use the following chunk to actually do both.

# Numeric indexing

# Reconstructing from extracted vectors

The select() function in tidyverse (actually from the dplyr package) is the smarter, easier way to do this. It works on data frames, and it can be read as “from <data frame>, select the columns that meet the criteria we’ve set.”

The simplest way to use select() is just to name the columns you want!

select(soup_tbl, minestrone1, minestrone2) # note the lack of quoting on the column names

## # A tibble: 24 × 2
##    minestrone1 minestrone2
##          <int>       <int>
##  1           0          50
##  2          70          80
##  3          80          97
##  4          20          60
##  5          65          96
##  6          30          80
##  7          75          90
##  8          70          80
##  9          40          90
## 10          15          65
## # … with 14 more rows
## # ℹ Use `print(n = ...)` to see more rows

But select() has a bunch of helper functions that make it easy to do more foolproof selection. Look them up by running, for example, ?one_of. We’re going to use contains(), which is the easy-to-read version of the grep() command I ran above.

We’ll also do this with a pipe (%>%) just to practice.

soup_tbl %>%
  select(contains("minestrone")) # note that this IS quoted, because I am asking for all columns with the string "minestrone"

## # A tibble: 24 × 2
##    minestrone1 minestrone2
##          <int>       <int>
##  1           0          50
##  2          70          80
##  3          80          97
##  4          20          60
##  5          65          96
##  6          30          80
##  7          75          90
##  8          70          80
##  9          40          90
## 10          15          65
## # … with 14 more rows
## # ℹ Use `print(n = ...)` to see more rows

We can also use logical negation (!, which we learned about last class) to, for example, get everything that isn’t “hotandsour”.

soup_tbl %>%
  select(!contains("hotandsour")) # Note that this ALSO returns the subject #, which we might or might not want

## # A tibble: 24 × 3
##    subject minestrone1 minestrone2
##      <int>       <int>       <int>
##  1       1           0          50
##  2       2          70          80
##  3       3          80          97
##  4       4          20          60
##  5       5          65          96
##  6       6          30          80
##  7       7          75          90
##  8       8          70          80
##  9       9          40          90
## 10      10          15          65
## # … with 14 more rows
## # ℹ Use `print(n = ...)` to see more rows

soup_tbl %>%
  select(!contains("hotandsour") & !contains("subject")) # we can combine logical conditions using & ("and") or | ("or")

## # A tibble: 24 × 2
##    minestrone1 minestrone2
##          <int>       <int>
##  1           0          50
##  2          70          80
##  3          80          97
##  4          20          60
##  5          65          96
##  6          30          80
##  7          75          90
##  8          70          80
##  9          40          90
## 10          15          65
## # … with 14 more rows
## # ℹ Use `print(n = ...)` to see more rows
…
In the code chunk below, right this so that it first selects for “minestrone”, rather than dropping “hotandsour”. What happens?

# rewrite the above code chunk to first select for "minestrone".  What happens, and why?

These are trivial examples, but they quickly become more powerful. In our tidy polyphenols dataset, we have 3 treatment variables (Catechin, PC.B2, and Chlorogenic.acid). A very common application for filter() would be to get a subset of our data that only matches certain treatment conditions:

polyphenol_tbl <- tibble(polyphenols) # for printing purposes
polyphenol_tbl %>%
  filter(Chlorogenic.acid == 5) # get only the observations where Chlorogenic.acid == 5.  Note the double '==' for testing equality.

## # A tibble: 27 × 4
##    Catechin PC.B2 Chlorogenic.acid equivalents.in.gallic.acid.mg.L
##       <dbl> <int>            <int>                           <dbl>
##  1      0.2     1                5                            2.79
##  2      0.2     1                5                            2.73
##  3      0.2     1                5                            2.74
##  4      0.2    30                5                           15.2 
##  5      0.2    30                5                           15.3 
##  6      0.2    30                5                           14.0 
##  7      0.2   100                5                           46.6 
##  8      0.2   100                5                           46.1 
##  9      0.2   100                5                           50.9 
## 10     30       1                5                           14.0 
## # … with 17 more rows
## # ℹ Use `print(n = ...)` to see more rows

4.2.6 Make new columns: mutate()

You hopefully are starting to be excited by the relative ease of doing some things in R with tidyverse that are otherwise a little bit abstruse. Here’s where I think things get really, really cool. The mutate() function creates a new column in the existing dataset.

We can do this easily in base R by setting a new name for a column and using the assign (<-) operator, but this is clumsy. Often, we want to create a new column temporarily, or to combine several existing columns. We can do this using the mutate() function.

soup_tbl %>%
  mutate(minestrone_liker = ifelse(minestrone1 > 0 & minestrone2 > 0, "yes", "no"))

## # A tibble: 24 × 6
##    subject minestrone1 minestrone2 hotandsour1 hotandsour2 minestrone_liker
##      <int>       <int>       <int>       <int>       <int> <chr>           
##  1       1           0          50         -50          10 no              
##  2       2          70          80         -20          20 yes             
##  3       3          80          97          10          37 yes             
##  4       4          20          60         -80          65 yes             
##  5       5          65          96          37          99 yes             
##  6       6          30          80         -50          20 yes             
##  7       7          75          90          40          80 yes             
##  8       8          70          80          50         -10 yes             
##  9       9          40          90         -60          20 yes             
## 10      10          15          65          25          20 yes             
## # … with 14 more rows
## # ℹ Use `print(n = ...)` to see more rows
…
What did we do above? Was it a good idea? Most importantly, did we actually change polyphenol_tbl? Check in your work environment to see.

4.2.7 Create quick data summaries: group_by(), count(), and summarize()

We are only scratching the surface of what we can do with tidyverse, and you will both be reading more about this and we’ll be returning throughout the semester as we learn more application. But here is an exploratory data analysis application that we will see here and will come back to us frequently.

The group_by() function takes a data frame and groups it by whatever variable is specified. It looks for distinct values, so it will work with even numeric variables (although not well, if they are not truly grouping variables).

polyphenol_tbl %>%
  group_by(Catechin) # note no quotes

## # A tibble: 81 × 4
## # Groups:   Catechin [3]
##    Catechin PC.B2 Chlorogenic.acid equivalents.in.gallic.acid.mg.L
##       <dbl> <int>            <int>                           <dbl>
##  1      0.2     1                5                            2.79
##  2      0.2     1                5                            2.73
##  3      0.2     1                5                            2.74
##  4      0.2     1              200                           57.7 
##  5      0.2     1              200                           58.2 
##  6      0.2     1              200                           69.2 
##  7      0.2     1              500                          150.  
##  8      0.2     1              500                          162.  
##  9      0.2     1              500                          161.  
## 10      0.2    30                5                           15.2 
## # … with 71 more rows
## # ℹ Use `print(n = ...)` to see more rows

By itself, this does not appear to do anything, although if you look closely at the output from printing the tibble you’ll notice that it now lists Groups: Catechin [3]. But this now allows us to use filter(), mutate(), and a host of other tidyverse functions in “grouped” mode, which means when we do all of those they will act WITHIN the group you have defined. So we can see the effect, we will first filter polyphenol_tbl, and then create a new variable with a grouped mutate() that is the average for that group.

polyphenol_tbl %>%
  filter(Chlorogenic.acid == 5) %>% # this is purely for ease of printing this example
  group_by(Catechin) %>%
  mutate(average_eq_gc = mean(equivalents.in.gallic.acid.mg.L))

## # A tibble: 27 × 5
## # Groups:   Catechin [3]
##    Catechin PC.B2 Chlorogenic.acid equivalents.in.gallic.acid.mg.L average_eq_gc
##       <dbl> <int>            <int>                           <dbl>         <dbl>
##  1      0.2     1                5                            2.79          21.8
##  2      0.2     1                5                            2.73          21.8
##  3      0.2     1                5                            2.74          21.8
##  4      0.2    30                5                           15.2           21.8
##  5      0.2    30                5                           15.3           21.8
##  6      0.2    30                5                           14.0           21.8
##  7      0.2   100                5                           46.6           21.8
##  8      0.2   100                5                           46.1           21.8
##  9      0.2   100                5                           50.9           21.8
## 10     30       1                5                           14.0           28.4
## # … with 17 more rows
## # ℹ Use `print(n = ...)` to see more rows

But that’s not all! Now that we have the idea of a group, we can use it for all kinds of useful things. For example, the count() function will just return the number of rows in each group. Let’s use that to check if our polyphenol_tbl was from a balanced design (e.g., has the same number of observations at every treatment level and intersection):

polyphenol_tbl %>%
  group_by(Catechin, Chlorogenic.acid, PC.B2) %>% # note that we can group by multiple variables
  count() # looks balanced, with triplicates at every treatment factor level

## # A tibble: 27 × 4
## # Groups:   Catechin, Chlorogenic.acid, PC.B2 [27]
##    Catechin Chlorogenic.acid PC.B2     n
##       <dbl>            <int> <int> <int>
##  1      0.2                5     1     3
##  2      0.2                5    30     3
##  3      0.2                5   100     3
##  4      0.2              200     1     3
##  5      0.2              200    30     3
##  6      0.2              200   100     3
##  7      0.2              500     1     3
##  8      0.2              500    30     3
##  9      0.2              500   100     3
## 10     30                  5     1     3
## # … with 17 more rows
## # ℹ Use `print(n = ...)` to see more rows

The count() function gets way more useful when we have large data that is unbalanced, and we want to be able to easily pull counts without knowing what they are beforehand.

Much more useful, but slightly more complex is the summarize() function, which applies arbitrary functions to the subsets defined by group_by(). So, say we want to find the average and standard deviation at each of the groups we defined before, instead of the count:

polyphenol_tbl %>%
  group_by(Catechin, PC.B2, Chlorogenic.acid) %>%
  summarize(mean_eq_gc = mean(equivalents.in.gallic.acid.mg.L),
            sd_eq_gc = sd(equivalents.in.gallic.acid.mg.L))

## # A tibble: 27 × 5
## # Groups:   Catechin, PC.B2 [9]
##    Catechin PC.B2 Chlorogenic.acid mean_eq_gc sd_eq_gc
##       <dbl> <int>            <int>      <dbl>    <dbl>
##  1      0.2     1                5       2.75   0.0321
##  2      0.2     1              200      61.7    6.52  
##  3      0.2     1              500     158.     6.42  
##  4      0.2    30                5      14.8    0.700 
##  5      0.2    30              200      63.3    0.824 
##  6      0.2    30              500     155.    16.3   
##  7      0.2   100                5      47.9    2.64  
##  8      0.2   100              200      90.6    5.78  
##  9      0.2   100              500     155.     5.52  
## 10     30       1                5      13.9    0.107 
## # … with 17 more rows
## # ℹ Use `print(n = ...)` to see more rows
…
## [1] "Catechin"                        "PC.B2"                          
## [3] "Chlorogenic.acid"                "equivalents.in.gallic.acid.mg.L"

Even with tab-completion, those are a pain to deal with. Renaming these in base R is a huge pain, in fact. You have to copy them to a new column by using the <- operator, then remove the original column using the [] operator with negative indices.

In tidyverse, the rename() function is there to help. It works in two, equally useful ways.

# New names go on the left hand side, old names on the right
polyphenol_tbl %>%
  rename(chlor = Chlorogenic.acid,
         pcb2 = PC.B2,
         cat = Catechin,
         eq_ga = equivalents.in.gallic.acid.mg.L)

## # A tibble: 81 × 4
##      cat  pcb2 chlor  eq_ga
##    <dbl> <int> <int>  <dbl>
##  1   0.2     1     5   2.79
##  2   0.2     1     5   2.73
##  3   0.2     1     5   2.74
##  4   0.2     1   200  57.7 
##  5   0.2     1   200  58.2 
##  6   0.2     1   200  69.2 
##  7   0.2     1   500 150.  
##  8   0.2     1   500 162.  
##  9   0.2     1   500 161.  
## 10   0.2    30     5  15.2 
## # … with 71 more rows
## # ℹ Use `print(n = ...)` to see more rows
…
