11 Data literacy and an applied example of data science | FST 5984: SS Data Analytics for Food and Ag Science
…
# Let's look at the ingredients (based on tags) for this set of drinks
demo_posts %>%
  mutate(title = str_squish(title)) %>% # get rid of whitespace in names
  filter(!str_detect(ingredients, "\\*[^original|^hot]")) %>% # here we are removing some posts that are not recipes
  unnest_tokens(output = ingredient,
                input = ingredients,
                token = "regex",
                pattern = " ### ") %>% # when I scraped these reviews I piled tags into a single column, separated by " ### " for easy later parsing
  filter(!str_detect(ingredient, "#|\\*")) -> # and finally we are removing symbols the author used to mark "non-ingredient" tags
  demo_ingredients

demo_ingredients %>%
  count(ingredient, sort = TRUE)

## # A tibble: 94 × 2
##    ingredient              n
##    <chr>               <int>
##  1 lime juice             31
##  2 rum                    27
##  3 bitters (angostura)    24
##  4 gin                    22
##  5 lemon juice            22
##  6 simple syrup           15
##  7 vermouth (sweet)       12
##  8 pineapple juice        11
##  9 whiskey (rye)          11
## 10 campari                 9
## # … with 84 more rows
## # ℹ Use `print(n = ...)` to see more rows

Above, you see a new function, which is the tidytext::unnest_tokens() function. This comes from a reading I highly recommend to anyone interested in learning the basics of text analysis: Text Mining with R (Silge and Robinson 2022). Rather than reinvent the wheel, I will quote the authors on what a “token” is in text analysis:

A token is a meaningful unit of text, most often a word, that we are interested in using for further analysis, and tokenization is the process of splitting text into tokens.

So unnest_tokens() splits a character vector (a column in a tibble that stores text) into many, individual “tokens”, which are the main unit of analysis for text analysis. The most common way to do this is to split at “whitespace”–spaces and hard returns, while eliminating punctuation. This gives us a rough “token ~ word” equivalence. A side effect of using unnest_tokens() is that it “tidies” our tibble–we get a one-line-per-token format:

# This is now a much longer tibble!
demo_ingredients %>%
  select(title, ingredient)

## # A tibble: 471 × 2
##    title               ingredient          
##    <chr>               <chr>               
##  1 down at the dinghy  chartreuse (yellow) 
##  2 down at the dinghy  lemon juice         
##  3 down at the dinghy  simple syrup (other)
##  4 down at the dinghy  whiskey             
##  5 transatlantic orbit apricot liqueur     
##  6 transatlantic orbit batavia arrack      
##  7 transatlantic orbit bitters (angostura) 
##  8 transatlantic orbit bitters (aromatic)  
##  9 transatlantic orbit gin                 
## 10 transatlantic orbit grapefruit juice    
## # … with 461 more rows
## # ℹ Use `print(n = ...)` to see more rows

In many ways unnest_tokens() is kind of like a purpose-built version of pivot_longer().

In this particular case, I used some optional arguments to unnest_tokens() to tell it to split at the ### symbol. This is because when I scraped these recipes, I used that as a separator for the ingredients listed as tags in the HTML files. If we wanted, for example, to split up the post body column (where the recipe and descriptions are), we could just use the plain function:

demo_posts %>%
  unnest_tokens(output = token, input = body) %>%
  select(title, token)

## # A tibble: 24,501 × 2
##    title                    token     
##    <chr>                    <chr>     
##  1 "\ndown at the dinghy\n" 2         
##  2 "\ndown at the dinghy\n" oz        
##  3 "\ndown at the dinghy\n" bushmills 
##  4 "\ndown at the dinghy\n" irish     
##  5 "\ndown at the dinghy\n" whiskey   
##  6 "\ndown at the dinghy\n" 1         
##  7 "\ndown at the dinghy\n" 2         
##  8 "\ndown at the dinghy\n" oz        
##  9 "\ndown at the dinghy\n" yellow    
## 10 "\ndown at the dinghy\n" chartreuse
## # … with 24,491 more rows
## # ℹ Use `print(n = ...)` to see more rows
…
spacy_initialize()
# This is the TIF format (https://github.com/ropensci/tif) required by spacyr: two-columns, one with a document ID and the other with the full text
demo_posts_separated %>%
  transmute(doc_id = post_id,
            text = description) %>% 
  # spaCy is a pre-trained neural-network for Natural Language Processing, here we request additional attributes: is it a stopword and is it like a number?
  spacy_parse(additional_attributes = c("is_stop", "like_num")) %>% 
  as_tibble() ->
  demo_posts_parsed
spacy_finalize()

demo_posts_parsed

## # A tibble: 16,434 × 9
##    doc_id sentence_id token_id token    lemma    pos   entity    is_stop like_…¹
##    <chr>        <int>    <int> <chr>    <chr>    <chr> <chr>     <lgl>   <lgl>  
##  1 1619             1        1 One      one      NUM   "CARDINA… TRUE    TRUE   
##  2 1619             1        2 of       of       ADP   ""        TRUE    FALSE  
##  3 1619             1        3 the      the      DET   ""        TRUE    FALSE  
##  4 1619             1        4 surprise surprise NOUN  ""        FALSE   FALSE  
##  5 1619             1        5 winners  winner   NOUN  ""        FALSE   FALSE  
##  6 1619             1        6 of       of       ADP   ""        TRUE    FALSE  
##  7 1619             1        7 the      the      DET   ""        TRUE    FALSE  
##  8 1619             1        8 Le       Le       PROPN ""        FALSE   FALSE  
##  9 1619             1        9 Mixeur   Mixeur   PROPN "NORP_B"  FALSE   FALSE  
## 10 1619             1       10 Sharky   Sharky   PROPN ""        FALSE   FALSE  
## # … with 16,424 more rows, and abbreviated variable name ¹​like_num
## # ℹ Use `print(n = ...)` to see more rows
…
Separated recipes and descriptions

Tidy-by-token information about adjectives used in the description

We’re ready to do some analysis!

11.1.6 Quantifying text data

First, let’s just look at the most frequent adjectives used in this dataset:

demo_posts_tokenized %>%
  count(lemma, sort = TRUE)

## # A tibble: 258 × 2
##    lemma      n
##    <chr>  <int>
##  1 herbal    37
##  2 bitter    25
##  3 orange    25
##  4 dry       20
##  5 sweet     17
##  6 dark      16
##  7 floral    11
##  8 good      11
##  9 little    11
## 10 nutty     10
## # … with 248 more rows
## # ℹ Use `print(n = ...)` to see more rows
…
demo_ingredients %>%
  transmute(post_id = as.character(post_id), title, ingredient) %>%
  left_join(demo_posts_parsed %>%
              filter(pos == "ADJ",
                     !is_stop,
                     !like_num,
                     entity == "",
                     str_length(lemma) > 1) %>% 
              select(doc_id, token, lemma),
            by = c("post_id" = "doc_id")) ->
  demo_descriptors

demo_descriptors

## # A tibble: 3,457 × 5
##    post_id title              ingredient          token  lemma 
##    <chr>   <chr>              <chr>               <chr>  <chr> 
##  1 1619    down at the dinghy chartreuse (yellow) soft   soft  
##  2 1619    down at the dinghy chartreuse (yellow) savory savory
##  3 1619    down at the dinghy chartreuse (yellow) herbal herbal
##  4 1619    down at the dinghy chartreuse (yellow) crisp  crisp 
##  5 1619    down at the dinghy chartreuse (yellow) savory savory
##  6 1619    down at the dinghy lemon juice         soft   soft  
##  7 1619    down at the dinghy lemon juice         savory savory
##  8 1619    down at the dinghy lemon juice         herbal herbal
##  9 1619    down at the dinghy lemon juice         crisp  crisp 
## 10 1619    down at the dinghy lemon juice         savory savory
## # … with 3,447 more rows
## # ℹ Use `print(n = ...)` to see more rows

Finally, we will use a methodology called “Term Frequency/Inverse Document-Frequency” (TF-IDF) to give us an idea of which descriptive adjective is more associated with particular ingredients.

demo_descriptors %>%
  count(ingredient, lemma, sort = TRUE) %>%
  # TF-IDF is a metric that looks at the (log) ratio of frequency of term in a document (here an ingredient) to frequency of the term across the whole corpus
  bind_tf_idf(term = lemma, document = ingredient, n = n) ->
  demo_tf_idf

demo_tf_idf

## # A tibble: 2,554 × 6
##    ingredient          lemma      n     tf   idf tf_idf
##    <chr>               <chr>  <int>  <dbl> <dbl>  <dbl>
##  1 bitters (angostura) herbal    12 0.0741 0.466 0.0345
##  2 rum                 dark      12 0.0638 0.782 0.0499
##  3 gin                 herbal    10 0.0543 0.466 0.0253
##  4 gin                 orange    10 0.0543 0.693 0.0377
##  5 lemon juice         herbal    10 0.0617 0.466 0.0288
##  6 lime juice          dark      10 0.0463 0.782 0.0362
##  7 lime juice          herbal    10 0.0463 0.466 0.0216
##  8 benedictine         herbal     9 0.141  0.466 0.0655
##  9 rum                 herbal     9 0.0479 0.466 0.0223
## 10 vermouth (sweet)    herbal     9 0.125  0.466 0.0582
## # … with 2,544 more rows
## # ℹ Use `print(n = ...)` to see more rows
…
