6 Describing your data | FST 5984: SS Data Analytics for Food and Ag Science
…
For “rectangular” data structures, we can also ask about the dimensions all at once using the dim() function:

dim(cider_chem)

## [1] 3 8

Less important, for our purposes, is the actual (memory) size of files: how many bytes they take up. Unless you are working with big data (on the scale of at least hundreds of megabytes), R will happily deal with whatever size data you need.

6.3.1.3 Names

In most of the use cases we have for R, we will be working with data objects that have names. When we print objects we can see that there are names assigned to different parts of the data:

apples # what are the names here?

## # A tibble: 42 × 22
##    Variety     Rep     His   Asn   Ser   Gln   Arg   Gly   Asp   Glu   Thr   Ala
##    <chr>       <chr> <dbl> <dbl> <dbl> <dbl> <dbl> <dbl> <dbl> <dbl> <dbl> <dbl>
##  1 Arkansas B… Rep_1  0.62 10.4   0.68  1.6   0.36  0.09  2.92  2.37  0.2   0.72
##  2 Blacktwig   Rep_1  0.77  2.32  0.54  0     0.24  0     1.96  1.03  0.18  0.47
##  3 Empire      Rep_1  0.46 21.2   0.43  1.01  0.27  0.09  5.88  1.49  0.28  1.92
##  4 Enterprise  Rep_1  0.52 34.8   0.9   2.78  0.24  0.08  5.18  2.49  0.33  1.71
##  5 Field Red   Rep_1  0.85  4.02  0.29  0     0.41  0     1.87  1.29  0.19  0.33
##  6 Golden Del… Rep_1  0.56  1.01  0     0     0.34  0     1.76  0.98  0.32  0.26
##  7 Granny Smi… Rep_1  0.61  8.76  0.34  0     0.31  0.1   1.41  0.58  0.38  0.42
##  8 Newtown Pi… Rep_1  0.33 26.1   1.01  1.36  0.67  0.13  5.14  3.23  0.57  1.03
##  9 Northern S… Rep_1  0.51  2.52  0.17  0     0.23  0     1.6   1.05  0.35  0.34
## 10 Rome        Rep_1  0.36  1.57  0.2   0     0.43  0.08  1.23  0.91  0.34  0.23
## # … with 32 more rows, and 10 more variables: GABA <dbl>, Pro <dbl>, Cys <dbl>,
## #   Lys <dbl>, Tyr <dbl>, Met <dbl>, Val <dbl>, Ile <dbl>, Leu <dbl>, Phe <dbl>
## # ℹ Use `print(n = ...)` to see more rows, and `colnames()` to see all variable names
…
This is actually so important that there is a shortcut: count(), which allows us to skip the group_by() and just specify the counting variable within the function:

cider_dryness %>%
  count(Panelist_Code)

## # A tibble: 49 × 2
##    Panelist_Code            n
##    <chr>                <int>
##  1 akyle99_vtu              6
##  2 andy9221_vtu             6
##  3 ann.sandbrook@vt.edu     6
##  4 blittleson_vtu           6
##  5 ccamryn3_vtu             6
##  6 ccomber1_vtu             6
##  7 cdavis98_vtu             6
##  8 cierrajames22_vtu        6
##  9 deckerj6_vtu             6
## 10 dhsawhney_vtu            6
## # … with 39 more rows
## # ℹ Use `print(n = ...)` to see more rows
…
