5 Exploring your data visually | FST 5984: SS Data Analytics for Food and Ag Science
…
We did all this using the function pivot_longer(), which takes wide data and makes it long (and tidy). The anatomy of pivot_wider() is as follows:

names_to = "<where the former column names will go>": in our case, we wrote names_to = "amino_acid".

values_to = "<where the former column entries will go>": in our case, we wrote values_to = "concentration"

-c(<excluded columns>): a vector of the columns that we don’t want to make longer, but instead want to keep track of. We wrote -c(Variety, Rep).

So the overall recipe was

apples %>%
  pivot_longer(names_to = "amino_acid", values_to = "concentration", -c(Variety, Rep))

## # A tibble: 840 × 4
##    Variety        Rep   amino_acid concentration
##    <chr>          <chr> <chr>              <dbl>
##  1 Arkansas Black Rep_1 His                 0.62
##  2 Arkansas Black Rep_1 Asn                10.4 
##  3 Arkansas Black Rep_1 Ser                 0.68
##  4 Arkansas Black Rep_1 Gln                 1.6 
##  5 Arkansas Black Rep_1 Arg                 0.36
##  6 Arkansas Black Rep_1 Gly                 0.09
##  7 Arkansas Black Rep_1 Asp                 2.92
##  8 Arkansas Black Rep_1 Glu                 2.37
##  9 Arkansas Black Rep_1 Thr                 0.2 
## 10 Arkansas Black Rep_1 Ala                 0.72
## # … with 830 more rows
## # ℹ Use `print(n = ...)` to see more rows

5.4.2 Making data wide

We can also reverse the process, by using the pivot_wider() function. This literally reverses the operation. We need to specify two main arguments:

names_from = "<current column>": where the names for the new, wide columns will come from.

values_from = "<current column>": where the values that will go into the cells in the new columns will come from

So to get back to apples, we can write:

tidy_apples %>%
  pivot_wider(names_from = "amino_acid", values_from = "concentration")

## # A tibble: 42 × 22
##    Variety     Rep     His   Asn   Ser   Gln   Arg   Gly   Asp   Glu   Thr   Ala
##    <chr>       <chr> <dbl> <dbl> <dbl> <dbl> <dbl> <dbl> <dbl> <dbl> <dbl> <dbl>
##  1 Arkansas B… Rep_1  0.62 10.4   0.68  1.6   0.36  0.09  2.92  2.37  0.2   0.72
##  2 Blacktwig   Rep_1  0.77  2.32  0.54  0     0.24  0     1.96  1.03  0.18  0.47
##  3 Empire      Rep_1  0.46 21.2   0.43  1.01  0.27  0.09  5.88  1.49  0.28  1.92
##  4 Enterprise  Rep_1  0.52 34.8   0.9   2.78  0.24  0.08  5.18  2.49  0.33  1.71
##  5 Field Red   Rep_1  0.85  4.02  0.29  0     0.41  0     1.87  1.29  0.19  0.33
##  6 Golden Del… Rep_1  0.56  1.01  0     0     0.34  0     1.76  0.98  0.32  0.26
##  7 Granny Smi… Rep_1  0.61  8.76  0.34  0     0.31  0.1   1.41  0.58  0.38  0.42
##  8 Newtown Pi… Rep_1  0.33 26.1   1.01  1.36  0.67  0.13  5.14  3.23  0.57  1.03
##  9 Northern S… Rep_1  0.51  2.52  0.17  0     0.23  0     1.6   1.05  0.35  0.34
## 10 Rome        Rep_1  0.36  1.57  0.2   0     0.43  0.08  1.23  0.91  0.34  0.23
## # … with 32 more rows, and 10 more variables: GABA <dbl>, Pro <dbl>, Cys <dbl>,
## #   Lys <dbl>, Tyr <dbl>, Met <dbl>, Val <dbl>, Ile <dbl>, Leu <dbl>, Phe <dbl>
## # ℹ Use `print(n = ...)` to see more rows, and `colnames()` to see all variable names
…
